http://hanwriting.blogspot.com/2016/11/okeyboard-theme-dark-grey.html?view=sidebar

```
http://okbdtheme.appspot.com/e.html?OK_Settings_Begin%0A__V.FB::false::B%0A__V.co8::0::X%0A__K.gw.L::8::I%0A__V.co1::8e000000::X%0A__V.co9::0::X%0A__K.gh.L::20::I%0A__V.co14::0::X%0A__V.co0::ff636363::X%0A__K.rx::3.6::F%0A__K.fs::92::I%0A__V.co2::ff96eaff::X%0A__V.co17::0::X%0A__K.ra2::0::I%0A__V.co12::26000000::X%0A__K.gw::12::I%0A__V.co10::77000000::X%0A__K.ra1::0::I%0A__V.co6::0::X%0A__V.co7::0::X%0A__V.co11::ffffffff::X%0A__K.fs2::50::I%0A__V.co13::0::X%0A__V.co4::ffffffff::X%0A__K.rx.L::0.0::F%0A__K.gh::15::I%0A__K.fs2.L::74::I%0A__K.ra0::0::I%0A__V.co5::ffc4e2ff::X%0A__K.ra3::0::I%0A__V.co15::0::X%0A__K.fs.L::83::I%0A__V.co16::0::X%0A__V.co3::db3f3f47::X%0AOK_Settings_End&%09%09%09
```

```
OK_Settings_Begin
__V.FB::false::B
__V.co8::0::X
__K.gw.L::8::I
__V.co1::8e000000::X
__V.co9::0::X
__K.gh.L::20::I
__V.co14::0::X
__V.co0::ff636363::X
__K.rx::3.6::F
__K.fs::92::I
__V.co2::ff96eaff::X
__V.co17::0::X
__K.ra2::0::I
__V.co12::26000000::X
__K.gw::12::I
__V.co10::77000000::X
__K.ra1::0::I
__V.co6::0::X
__V.co7::0::X
__V.co11::ffffffff::X
__K.fs2::50::I
__V.co13::0::X
__V.co4::ffffffff::X
__K.rx.L::0.0::F
__K.gh::15::I
__K.fs2.L::74::I
__K.ra0::0::I
__V.co5::ffc4e2ff::X
__K.ra3::0::I
__V.co15::0::X
__K.fs.L::83::I
__V.co16::0::X
__V.co3::db3f3f47::X
OK_Settings_End&%09%09%09
```

http://hanwriting.blogspot.com/2016/06/okeyboard-theme-white-cardboard.html?view=sidebar (don't open, it redirect to a junk website)
```
http://okbdtheme.appsp0t.com/e.html?OK_Settings_Begin%0A__V.co6::ff000000::X%0A__V.FB::false::B%0A__V.co7::0::X%0A__V.co11::ffffffff::X%0A__V.co8::0::X%0A__K.fs2::73::I%0A__V.co13::ffffffff::X%0A__V.co4::ffe2c4a8::X%0A__V.WP::false::B%0A__K.gw.L::5::I%0A__K.rx.L::24.6::F%0A__V.co1::ffffffff::X%0A__V.co9::0::X%0A__K.gh.L::24::I%0A__K.gh::26::I%0A__V.co14::ff556677::X%0A__V.co0::47606668::X%0A__K.fs2.L::72::I%0A__V.WP.L::false::B%0A__K.rx::24.3::F%0A__K.ra0::25::I%0A__V.co5::ffff6b00::X%0A__K.ra3::0::I%0A__V.co15::ff546884::X%0A__K.fs.L::107::I%0A__K.fs::94::I%0A__V.co2::ff003a49::X%0A__V.co17::ff636d7f::X%0A__K.ra2::0::I%0A__V.co12::ee000000::X%0A__V.co16::0::X%0A__V.co3::ce000514::X%0A__K.gw::0::I%0A__V.co10::aa336699::X%0A__K.ra1::0::I%0AOK_Settings_End&%09%09%09
```

```
OK_Settings_Begin
__V.co6::ff000000::X
__V.FB::false::B
__V.co7::0::X
__V.co11::ffffffff::X
__V.co8::0::X
__K.fs2::73::I
__V.co13::ffffffff::X
__V.co4::ffe2c4a8::X
__V.WP::false::B
__K.gw.L::5::I
__K.rx.L::24.6::F
__V.co1::ffffffff::X
__V.co9::0::X
__K.gh.L::24::I
__K.gh::26::I
__V.co14::ff556677::X
__V.co0::47606668::X
__K.fs2.L::72::I
__V.WP.L::false::B
__K.rx::24.3::F
__K.ra0::25::I
__V.co5::ffff6b00::X
__K.ra3::0::I
__V.co15::ff546884::X
__K.fs.L::107::I
__K.fs::94::I
__V.co2::ff003a49::X
__V.co17::ff636d7f::X
__K.ra2::0::I
__V.co12::ee000000::X
__V.co16::0::X
__V.co3::ce000514::X
__K.gw::0::I
__V.co10::aa336699::X
__K.ra1::0::I
OK_Settings_End&%09%09%09
```
